<?xml version="1.0" encoding="UTF-8" standalone="no"?>
<svg
   data-name="Layer 1"
   viewBox="0 0 100 100"
   x="0px"
   y="0px"
   version="1.1"
   id="svg5"
   sodipodi:docname="right.svg"
   width="100"
   height="100"
   inkscape:version="1.3.2 (091e20ef0f, 2023-11-25)"
   xmlns:inkscape="http://www.inkscape.org/namespaces/inkscape"
   xmlns:sodipodi="http://sodipodi.sourceforge.net/DTD/sodipodi-0.dtd"
   xmlns="http://www.w3.org/2000/svg"
   xmlns:svg="http://www.w3.org/2000/svg"
   xmlns:rdf="http://www.w3.org/1999/02/22-rdf-syntax-ns#"
   xmlns:cc="http://creativecommons.org/ns#"
   xmlns:dc="http://purl.org/dc/elements/1.1/">
  <defs
     id="defs5" />
  <sodipodi:namedview
     id="namedview5"
     pagecolor="#505050"
     bordercolor="#eeeeee"
     borderopacity="1"
     inkscape:showpageshadow="0"
     inkscape:pageopacity="0"
     inkscape:pagecheckerboard="0"
     inkscape:deskcolor="#505050"
     inkscape:zoom="6.264"
     inkscape:cx="50.047893"
     inkscape:cy="62.5"
     inkscape:window-width="1920"
     inkscape:window-height="1005"
     inkscape:window-x="0"
     inkscape:window-y="0"
     inkscape:window-maximized="1"
     inkscape:current-layer="svg5" />
  <title
     id="title1">Artboard 49</title>
  <path
     d="M 74,73 H 26 a 4,4 0 0 0 0,8 h 48 a 4,4 0 0 0 0,-8 z"
     id="path1"
     style="fill:#808080" />
  <path
     d="M 74,37 H 26 a 4,4 0 0 0 0,8 h 48 a 4,4 0 0 0 0,-8 z"
     id="path2"
     style="fill:#808080" />
  <path
     d="M 74,19 H 48 a 4,4 0 0 0 0,8 h 26 a 4,4 0 0 0 0,-8 z"
     id="path3"
     style="fill:#808080" />
  <path
     d="M 74,55 H 48 a 4,4 0 0 0 0,8 h 26 a 4,4 0 0 0 0,-8 z"
     id="path4"
     style="fill:#808080" />
  <metadata
     id="metadata5">
    <rdf:RDF>
      <cc:Work
         rdf:about="">
        <dc:title>Artboard 49</dc:title>
      </cc:Work>
    </rdf:RDF>
  </metadata>
</svg>
