<?xml version="1.0" encoding="UTF-8" standalone="no"?>
<svg
   viewBox="0 0 96 96"
   fill="none"
   x="0px"
   y="0px"
   version="1.1"
   id="svg2"
   sodipodi:docname="mail.svg"
   width="96"
   height="96"
   inkscape:version="1.3.2 (091e20ef0f, 2023-11-25)"
   xmlns:inkscape="http://www.inkscape.org/namespaces/inkscape"
   xmlns:sodipodi="http://sodipodi.sourceforge.net/DTD/sodipodi-0.dtd"
   xmlns="http://www.w3.org/2000/svg"
   xmlns:svg="http://www.w3.org/2000/svg">
  <defs
     id="defs2" />
  <sodipodi:namedview
     id="namedview2"
     pagecolor="#505050"
     bordercolor="#eee"
     borderopacity="1"
     inkscape:showpageshadow="0"
     inkscape:pageopacity="0"
     inkscape:pagecheckerboard="0"
     inkscape:deskcolor="#505050"
     inkscape:zoom="3.0346789"
     inkscape:cx="105.44773"
     inkscape:cy="57.501965"
     inkscape:current-layer="svg2" />
  <path
     fill-rule="evenodd"
     clip-rule="evenodd"
     d="M 84,12 H 12 C 8.8174,12 5.76516,13.2643 3.51472,15.5147 1.26428,17.7652 0,20.8174 0,24 v 48 c 0,3.1826 1.26428,6.2348 3.51472,8.4853 C 5.76516,82.7357 8.8174,84 12,84 h 72 c 3.1826,0 6.2348,-1.2643 8.4853,-3.5147 C 94.7357,78.2348 96,75.1826 96,72 V 24 C 96,20.8174 94.7357,17.7652 92.4853,15.5147 90.2348,13.2643 87.1826,12 84,12 Z M 16.1633,24.2465 c 0.366,0.1637 0.6934,0.4027 0.9607,0.7015 l 28.68,30.882 c 0.2807,0.3016 0.6206,0.5422 0.9984,0.7067 0.3779,0.1645 0.7855,0.2494 1.1976,0.2494 0.4121,0 0.8197,-0.0849 1.1975,-0.2494 0.3779,-0.1645 0.7178,-0.4051 0.9985,-0.7067 l 28.68,-30.882 c 0.2673,-0.2988 0.5947,-0.5378 0.9607,-0.7015 0.366,-0.1636 0.7624,-0.2482 1.1633,-0.2482 0.4009,0 0.7973,0.0846 1.1633,0.2482 0.366,0.1637 0.6934,0.4027 0.9607,0.7015 0.565,0.6262 0.8777,1.4396 0.8777,2.283 0,0.8434 -0.3127,1.6568 -0.8777,2.283 L 68.3675,45.4054 83.0641,60.6419 c 2.832,2.928 -1.41,7.32 -4.236,4.392 L 64.2075,49.8854 50.124,65.052 c -1.176,1.26 -3.072,1.26 -4.248,0 L 31.7637,49.8543 17.1181,65.0339 c -0.2731,0.2882 -0.602,0.5177 -0.9666,0.6745 -0.3647,0.1568 -0.7575,0.2377 -1.1544,0.2377 -0.397,0 -0.7898,-0.0809 -1.1544,-0.2377 -0.3647,-0.1568 -0.6936,-0.3863 -0.9666,-0.6745 -0.5635,-0.5923 -0.8777,-1.3785 -0.8777,-2.196 0,-0.8175 0.3142,-1.6037 0.8777,-2.196 l 14.73,-15.264 2.2777,2.452 L 12.876,29.514 c -0.565,-0.6262 -0.8777,-1.4396 -0.8777,-2.283 0,-0.8434 0.3127,-1.6568 0.8777,-2.283 0.2673,-0.2988 0.5947,-0.5378 0.9607,-0.7015 0.366,-0.1636 0.7624,-0.2482 1.1633,-0.2482 0.4009,0 0.7973,0.0846 1.1633,0.2482 z"
     fill="black"
     id="path1" />
</svg>
